^C:\USERS\BINKI\DOCUMENTS\HOWEST\SEM 4\GAMEPLAY PROGRAMMING\GPP_RETAKE\PROJECT\STDAFX.CPP
C:\USERS\BINKI\DOCUMENTS\HOWEST\SEM 4\GAMEPLAY PROGRAMMING\GPP_RETAKE\PROJECT\_TEMP\RELEASE\GPP_PLUGIN.PCH
C:\USERS\BINKI\DOCUMENTS\HOWEST\SEM 4\GAMEPLAY PROGRAMMING\GPP_RETAKE\PROJECT\_TEMP\RELEASE\STDAFX.OBJ
^C:\USERS\BINKI\DOCUMENTS\HOWEST\SEM 4\GAMEPLAY PROGRAMMING\GPP_RETAKE\PROJECT\BEHAVIORTREE.CPP|C:\USERS\BINKI\DOCUMENTS\HOWEST\SEM 4\GAMEPLAY PROGRAMMING\GPP_RETAKE\PROJECT\PLUGIN.CPP
C:\USERS\BINKI\DOCUMENTS\HOWEST\SEM 4\GAMEPLAY PROGRAMMING\GPP_RETAKE\PROJECT\_TEMP\RELEASE\PLUGIN.OBJ
C:\USERS\BINKI\DOCUMENTS\HOWEST\SEM 4\GAMEPLAY PROGRAMMING\GPP_RETAKE\PROJECT\_TEMP\RELEASE\BEHAVIORTREE.OBJ
